<?xml version="1.0" encoding="utf-8"?>
<!-- Generator: Adobe Illustrator 23.1.1, SVG Export Plug-In . SVG Version: 6.00 Build 0)  -->
<svg version="1.1" id="Laag_1" xmlns="http://www.w3.org/2000/svg" xmlns:xlink="http://www.w3.org/1999/xlink" x="0px" y="0px"
	 viewBox="0 0 150 150" style="enable-background:new 0 0 150 150;" xml:space="preserve">
<style type="text/css">
	.st0{fill:#EF7D00;}
</style>
<g>
	<path class="st0" d="M76.85,22H48.99c-4.51,0-8.17,3.66-8.17,8.17v27.86c0,4.51,3.66,8.17,8.17,8.17h27.86
		c4.51,0,8.17-3.66,8.17-8.17V30.17C85.02,25.66,81.36,22,76.85,22z M60.61,27.93c0-0.51,0.4-0.91,0.91-0.91h5.45
		c0.51,0,0.91,0.4,0.91,0.91v4.54c0,0.51-0.4,0.91-0.91,0.91h-5.45c-0.51,0-0.91-0.4-0.91-0.91V27.93z M71.51,57.91
		c0,0.51-0.4,0.91-0.91,0.91H57.88c-0.51,0-0.91-0.4-0.91-0.91v-4.54c0-0.51,0.4-0.91,0.91-0.91h2.72v-9.08h-2.72
		c-0.51,0-0.91-0.4-0.91-0.91v-4.54c0-0.51,0.4-0.91,0.91-0.91h9.08c0.51,0,0.91,0.4,0.91,0.91v14.53h2.73
		c0.51,0,0.91,0.4,0.91,0.91V57.91z"/>
</g>
<g>
	<g>
		<path class="st0" d="M136.78,85.9c-0.34-0.18-0.81-0.39-1.18-0.49c-2.22-0.62-6.52-1.58-6.52-1.58c-2.64-0.55-5.21,1.13-5.76,3.78
			l-4.95,23.85c-0.55,2.65,1.13,5.21,3.78,5.76l6.1,1.32c2.64,0.56,5.21-1.11,5.78-3.75l5.09-23.82c0.34-1.58-0.15-3.1-1.15-4.19
			C137.56,86.34,137.08,86.06,136.78,85.9z M128.89,113.34c-0.87,1.34-2.7,1.72-4.04,0.85c-1.34-0.87-1.73-2.7-0.85-4.04
			c0.87-1.34,2.7-1.73,4.04-0.85C129.37,110.17,129.76,112,128.89,113.34z"/>
		<g>
			<path class="st0" d="M97.72,76.4c-3.02-4.53-9.22-5.26-9.22-5.26c-5.8-0.35-9.16,0.23-11.66,1.29l0-0.03l-0.55,0.34
				c-2.87,1.82-7.68,4.87-14.95,5.63c-7.6,0.8-14.23,3.63-14.29,3.65c-2.91,1.68-3.05,4.98-2.85,5.51c0.09,0.18,0.31,0.63,1.49,0.66
				c0.39-0.03,1.28-0.07,2.59-0.16l0.47-0.03c21.09-1.54,29.77-0.97,32.03,2.08l-2.78,2.06c-0.89-1.21-6.65-2.31-29-0.69l-0.47,0.04
				c-1.56,0.11-2.65,0.18-2.98,0.17c-2.81-0.08-4.01-1.68-4.47-2.64c-0.33-0.68-0.44-1.76-0.3-2.98
				c-4.27-1.99-13.45-6.17-20.07-9.43c-8.27-4.07-9.09,4.67-9.09,4.67l2.83,1.27c-1.38,2.97,0.37,4.76,0.37,4.76
				c10.69,2.13,39.65,24.56,42.35,25.18c2.71,0.63,12.25-2.21,26.1-5.28c13.85-3.08,24.22,1.79,29.51,5.77l5.62-27.5
				C104.5,82.04,97.72,76.4,97.72,76.4z"/>
		</g>
	</g>
</g>
</svg>
