<?xml version="1.0" encoding="utf-8"?>
<!-- Generator: Adobe Illustrator 23.1.1, SVG Export Plug-In . SVG Version: 6.00 Build 0)  -->
<svg version="1.1" id="Laag_1" xmlns="http://www.w3.org/2000/svg" xmlns:xlink="http://www.w3.org/1999/xlink" x="0px" y="0px"
	 viewBox="0 0 150 150" style="enable-background:new 0 0 150 150;" xml:space="preserve">
<style type="text/css">
	.st0{fill:#565555;}
</style>
<g>
	<polygon class="st0" points="65.8,62.5 54.2,49.8 67.8,49.8 67.8,24.6 87.1,40.8 112.4,21 98.8,57.1 96.8,44.4 89.1,49.8 75.5,39 
		73.6,55.3 63.9,55.3 	"/>
	<path class="st0" d="M54,71.6c-11.2-9.8-19.4-17.2-24.8-21.8c-3.8-3.3-6.4-3.6-7.7-3.6h-8.1v8.5h6.6c2.2,0,4.6,0.9,6.2,2.2
		c2.2,1.8,11,9.6,14.5,12.6c3.1,2.8,1.7,3.3-0.6,3.3c0,0-12.5,0-26.7,0v32.1h29.8c2.4,6.2,8.7,10.7,16.3,10.7
		c7.9,0,14.5-4.9,16.6-11.6c2.8-1.8,6.4-5.7,6.4-7.5V81.6C82.5,77.5,73.4,75.2,54,71.6z M59.5,107.8c-4.8,0-8.6-3.6-8.6-8
		c0-4.4,3.9-8,8.6-8c4.8,0,8.6,3.6,8.6,8C68.1,104.2,64.2,107.8,59.5,107.8z"/>
	<path class="st0" d="M139.5,73h-21.2c-2.6,0-3.9-1.4-1.3-4.7c2.2-2.9,7.5-9.2,8.7-10.8c1.6-2.1,2.6-2.8,5.5-2.8h8.3v-8.5h-10.7
		c-3.7,0-5.8,0.6-7.7,3.6c-1.9,3-12.3,14.5-14.7,18.4c-15.5,3-17.8,5.7-17.8,10v18.5c0,2.3,6.2,8.4,8.6,8.4h3.9
		c2.4,6.2,8.7,10.7,16.3,10.7c7.5,0,13.9-4.5,16.3-10.7h5.8L139.5,73L139.5,73z M117.4,107.8c-4.8,0-8.6-3.6-8.6-8
		c0-4.4,3.9-8,8.6-8c4.8,0,8.6,3.6,8.6,8C126.1,104.2,122.2,107.8,117.4,107.8z"/>
</g>
</svg>
