<?xml version="1.0" encoding="utf-8"?>
<!-- Generator: Adobe Illustrator 23.1.1, SVG Export Plug-In . SVG Version: 6.00 Build 0)  -->
<svg version="1.1" id="Laag_1" xmlns="http://www.w3.org/2000/svg" xmlns:xlink="http://www.w3.org/1999/xlink" x="0px" y="0px"
	 viewBox="0 0 150 150" style="enable-background:new 0 0 150 150;" xml:space="preserve">
<style type="text/css">
	.st0{fill:#FFFFFF;}
</style>
<path class="st0" d="M136.99,54.91V29.15c0-5.54-4.53-10.08-10.08-10.08h-2.78h-95.2h-2.78c-5.54,0-10.08,4.53-10.08,10.08v25.76
	l-0.01-0.01v42.77c0,5.54,4.54,10.08,10.08,10.08h0.01h34.26c0,2.88-1.16,5.5-2.24,7.67c-0.68,1.35-1.33,2.53-1.62,3.48
	c-0.11,0.35-0.17,0.66-0.17,0.93c0,2.21,1.82,4.03,4.03,4.03h32.25c2.21,0,4.03-1.82,4.03-4.03c0-0.28-0.06-0.59-0.17-0.93
	c-0.29-0.95-0.94-2.13-1.62-3.48c-1.08-2.17-2.24-4.8-2.24-7.67h34.26h0.01c5.54,0,10.08-4.54,10.08-10.08L136.99,54.91
	L136.99,54.91z M26.15,83.57c-1.07,0-2.01-0.94-2.01-2.01v-52.4c0-1.07,0.94-2.02,2.01-2.02h10.83h79.1h10.83
	c1.07,0,2.01,0.95,2.01,2.02v52.4c0,1.07-0.94,2.01-2.01,2.01H26.15z"/>
<g>
	<path class="st0" d="M96.49,67.93h6.18V56.67c0-2.12,0.48-4.32,3.54-4.32c2.76,0,3.25,2.01,3.25,4.29v11.29h6.18V54.99
		c0-2.8-0.71-8.46-7.67-8.46c-3.69,0-5,1.9-5.71,2.91v-2.2h-5.77C96.49,47.24,96.49,67.93,96.49,67.93z M91.71,47.24h-6.18v20.47
		c0,1.49-0.04,3.13-2.2,3.13h-0.82v4.69h1.53c6.78,0,7.67-3.24,7.67-8.05V47.24z M85.53,45.04h6.18v-4.69h-6.18V45.04z M73.86,67.93
		h6.18V47.24h-6.18V67.93z M73.86,45.04h6.18v-4.69h-6.18V45.04z M37.74,67.93h6.18v-11c0-0.63,0-1.75,0.45-2.76s1.3-1.83,3.06-1.83
		c1.57,0,2.31,0.78,2.72,1.75c0.37,0.93,0.37,2.01,0.37,2.57v11.26h6.18V56.63c0-0.6,0-1.64,0.45-2.57
		c0.41-0.93,1.27-1.71,2.98-1.71c1.61,0,2.39,0.71,2.76,1.68c0.41,0.93,0.41,2.05,0.41,2.91v11h6.18V56.63
		c0-4.58-0.3-5.96-2.24-8.01c-1.68-1.75-3.99-2.09-5.44-2.09c-2.17,0-3.84,0.78-5.07,1.9c-0.6,0.52-1.08,1.16-1.49,1.79
		c-0.37-0.71-0.78-1.27-1.23-1.71c-1.53-1.6-3.31-1.98-4.73-1.98c-2.17,0-3.62,0.71-4.51,1.45c-0.89,0.71-1.27,1.45-1.27,1.45v-2.2
		h-5.77L37.74,67.93L37.74,67.93z"/>
</g>
</svg>
