<?xml version="1.0" encoding="utf-8"?>
<!-- Generator: Adobe Illustrator 23.1.1, SVG Export Plug-In . SVG Version: 6.00 Build 0)  -->
<svg version="1.1" id="Laag_1" xmlns="http://www.w3.org/2000/svg" xmlns:xlink="http://www.w3.org/1999/xlink" x="0px" y="0px"
	 viewBox="0 0 150 150" style="enable-background:new 0 0 150 150;" xml:space="preserve">
<style type="text/css">
	.st0{fill:#FFFFFF;}
</style>
<g>
	<g>
		<path class="st0" d="M71.17,117.39l13.24,13.24l-19.78,6.65L71.17,117.39z M76.52,112.58l36.46-36.46l12.71,12.71l-36.47,36.46
			L76.52,112.58z M118.09,71.01l5.58-5.76c0.6-0.51,1.25-0.77,1.96-0.77s1.36,0.26,1.96,0.77l9.09,9.09
			c0.51,0.55,0.77,1.22,0.77,1.99c0,0.77-0.26,1.42-0.77,1.93l-5.88,5.46L118.09,71.01z"/>
		<path class="st0" d="M125.63,64.47c0.71,0,1.37,0.26,1.96,0.77l9.09,9.09c0.51,0.56,0.77,1.22,0.77,1.99
			c0,0.77-0.26,1.42-0.77,1.93l-5.88,5.46l-12.71-12.71l5.58-5.76C124.27,64.73,124.92,64.47,125.63,64.47 M112.98,76.11
			l12.71,12.71l-36.47,36.46l-12.71-12.71L112.98,76.11 M71.17,117.39l13.24,13.24l-19.78,6.65L71.17,117.39"/>
	</g>
	<path class="st0" d="M97.59,79.13L79.03,67.2v-7.2c1.78,0,3.42-1.79,4.93-5.36c1.51-3.57,2.27-6.58,2.27-9.03V31.23
		c0-5.95-2.11-11.03-6.33-15.25c-4.22-4.22-9.31-6.33-15.25-6.33c-5.95,0-11.03,2.11-15.25,6.33c-4.22,4.22-6.33,9.31-6.33,15.25
		v14.39c0,2.45,0.75,5.46,2.27,9.03c1.51,3.57,3.15,5.36,4.93,5.36v7.2L21.47,85.69v10.29h59.26L97.59,79.13z"/>
</g>
</svg>
